Donâ€™t Get Kicked - Kaggle
…
Missing values

Conducting a quick analysis of null values as well as unique variable values reveals that no variable has nulls with the exception of [Trim], which has over 2000. Further, [Trim] has 135 unique values. Since the high number of unique values reduces [Trim]â€™s predictive power, and since it is unique in the number of nulls it contains, we opt to remove it completely from the dataset.

suppressMessages(library(skimr))
skimmed <- skim_to_wide(car_data)
skimmed[, c(1:4, 6,7,9)]

## # A tibble: 28 x 7
##    type   variable      missing complete n_unique top_counts         mean 
##    <chr>  <chr>         <chr>   <chr>    <chr>    <chr>              <chr>
##  1 factor AUCGUART      0       72983    3        NUL: 69564, GRE: ~ <NA> 
##  2 factor Auction       0       72983    3        MAN: 41043, OTH: ~ <NA> 
##  3 factor Color         0       72983    17       SIL: 14875, WHI: ~ <NA> 
##  4 factor Make          0       72983    33       CHE: 17248, DOD: ~ <NA> 
##  5 factor MMRAcquisiti~ 0       72983    10343    0: 828, 548: 368,~ <NA> 
##  6 factor MMRAcquisiti~ 0       72983    11380    0: 697, 646: 374,~ <NA> 
##  7 factor MMRAcquisiti~ 0       72983    12726    0: 828, 641: 369,~ <NA> 
##  8 factor MMRAcquisito~ 0       72983    13457    0: 828, 747: 373,~ <NA> 
##  9 factor MMRCurrentAu~ 0       72983    10316    0: 504, NUL: 315,~ <NA> 
## 10 factor MMRCurrentAu~ 0       72983    11266    0: 378, NUL: 315,~ <NA> 
## # ... with 18 more rows
…
